%YAML 1.1
%TAG !u! tag:unity3d.com,2011:
--- !u!114 &11400000
MonoBehaviour:
  m_ObjectHideFlags: 0
  m_CorrespondingSourceObject: {fileID: 0}
  m_PrefabInstance: {fileID: 0}
  m_PrefabAsset: {fileID: 0}
  m_GameObject: {fileID: 0}
  m_Enabled: 1
  m_EditorHideFlags: 0
  m_Script: {fileID: 11500000, guid: 48bb4837106a44466aea61fef9b346fe, type: 3}
  m_Name: References
  m_EditorClassIdentifier: 
  actionsManager: {fileID: 11400000, guid: ea61047afe6126f45b87aaa23631a872, type: 2}
  sceneManager: {fileID: 11400000, guid: 5b99bca198cf94b46a9e31978644b620, type: 2}
  settingsManager: {fileID: 11400000, guid: 060122315662d444184db8f638b441bc, type: 2}
  inventoryManager: {fileID: 11400000, guid: 65f30a9bba18182448ccff3eafb68dd7, type: 2}
  variablesManager: {fileID: 11400000, guid: f434e90d93e98c14f80ff972bbbe9bf6, type: 2}
  speechManager: {fileID: 11400000, guid: 810dc87dcd3acb14885dec83926db9a6, type: 2}
  cursorManager: {fileID: 11400000, guid: c12d6cdaac55f1b43a19c6e40a9af1a5, type: 2}
  menuManager: {fileID: 11400000, guid: 0a666624dff2a0e4f8c4835027e9b845, type: 2}
